{
  "cordova-plugin-console": {
    "source": {
      "type": "registry",
      "id": "cordova-plugin-console@~1.0.1"
    },
    "is_top_level": true,
    "variables": {}
  },
  "cordova-plugin-statusbar": {
    "source": {
      "type": "registry",
      "id": "cordova-plugin-statusbar@~1.0.1"
    },
    "is_top_level": true,
    "variables": {}
  },
  "cordova-plugin-email-composer": {
    "source": {
      "type": "registry",
      "id": "cordova-plugin-email-composer@^0.8.10"
    },
    "is_top_level": true,
    "variables": {}
  },
  "cordova-plugin-camera": {
    "source": {
      "type": "registry",
      "id": "cordova-plugin-camera"
    },
    "is_top_level": true,
    "variables": {
      "CAMERA_USAGE_DESCRIPTION": "Afin d'envoyer des images de signalements",
      "PHOTOLIBRARY_USAGE_DESCRIPTION": "Afin d'envoyer des images de signalements"
    }
  },
  "cordova-plugin-whitelist": {
    "source": {
      "type": "registry",
      "id": "cordova-plugin-whitelist@1.3.2"
    },
    "is_top_level": true,
    "variables": {}
  },
  "cordova-plugin-splashscreen": {
    "source": {
      "type": "registry",
      "id": "cordova-plugin-splashscreen@4.0.3"
    },
    "is_top_level": true,
    "variables": {}
  },
  "cordova-sqlite-plugin": {
    "source": {
      "type": "registry",
      "id": "cordova-sqlite-plugin"
    },
    "is_top_level": true,
    "variables": {}
  },
  "cordova-plugin-file": {
    "source": {
      "type": "registry",
      "id": "cordova-plugin-file@^5.0.0"
    },
    "is_top_level": false,
    "variables": {}
  },
  "cordova-plugin-compat": {
    "source": {
      "type": "registry",
      "id": "cordova-plugin-compat@^1.0.0"
    },
    "is_top_level": false,
    "variables": {}
  },
  "phonegap-plugin-push": {
    "source": {
      "type": "registry",
      "id": "phonegap-plugin-push@1.9"
    },
    "is_top_level": true,
    "variables": {}
  },
  "cordova-plugin-x-socialsharing": {
    "source": {
      "type": "registry",
      "id": "cordova-plugin-x-socialsharing"
    },
    "is_top_level": true,
    "variables": {}
  },
  "es6-promise-plugin": {
    "source": {
      "type": "registry",
      "id": "es6-promise-plugin@4.1.0"
    },
    "is_top_level": false,
    "variables": {}
  },
  "cordova-plugin-device": {
    "source": {
      "type": "registry",
      "id": "cordova-plugin-device"
    },
    "is_top_level": true,
    "variables": {}
  },
  "cordova-android-support-gradle-release": {
    "source": {
      "type": "registry",
      "id": "cordova-android-support-gradle-release"
    },
    "is_top_level": true,
    "variables": {
      "ANDROID_SUPPORT_VERSION": "24.+"
    }
  }
}