{
    "prepare_queue": {
        "installed": [],
        "uninstalled": []
    },
    "config_munge": {
        "files": {}
    },
    "installed_plugins": {
        "cordova-plugin-camera": {
            "CAMERA_USAGE_DESCRIPTION": "Afin d'envoyer des images de signalements",
            "PHOTOLIBRARY_USAGE_DESCRIPTION": "Afin d'envoyer des images de signalements",
            "PACKAGE_NAME": "fr.digiplace.villetinqueux"
        },
        "cordova-plugin-console": {
            "PACKAGE_NAME": "fr.digiplace.villetinqueux"
        },
        "cordova-plugin-device": {
            "PACKAGE_NAME": "fr.digiplace.villetinqueux"
        },
        "cordova-plugin-email-composer": {
            "PACKAGE_NAME": "fr.digiplace.villetinqueux"
        },
        "cordova-plugin-splashscreen": {
            "PACKAGE_NAME": "fr.digiplace.villetinqueux"
        },
        "cordova-plugin-statusbar": {
            "PACKAGE_NAME": "fr.digiplace.villetinqueux"
        },
        "cordova-plugin-whitelist": {
            "PACKAGE_NAME": "fr.digiplace.villetinqueux"
        },
        "cordova-plugin-x-socialsharing": {
            "PACKAGE_NAME": "fr.digiplace.villetinqueux"
        },
        "cordova-sqlite-plugin": {
            "PACKAGE_NAME": "fr.digiplace.villetinqueux"
        },
        "phonegap-plugin-push": {
            "SENDER_ID": "85075801930",
            "PACKAGE_NAME": "fr.digiplace.villetinqueux"
        }
    },
    "dependent_plugins": {
        "cordova-plugin-compat": {
            "PACKAGE_NAME": "fr.digiplace.villetinqueux"
        },
        "cordova-plugin-save-image": {
            "CAMERA_USAGE_DESCRIPTION": " ",
            "PHOTOLIBRARY_USAGE_DESCRIPTION": " ",
            "PACKAGE_NAME": "fr.digiplace.villetinqueux"
        },
        "es6-promise-plugin": {
            "PACKAGE_NAME": "fr.digiplace.villetinqueux"
        }
    }
}