{
  "project_info": {
    "project_number": "906083653930",
    "firebase_url": "https://smartcity-27d69.firebaseio.com",
    "project_id": "smartcity-27d69",
    "storage_bucket": "smartcity-27d69.appspot.com"
  },
  "client": [
    {
      "client_info": {
        "mobilesdk_app_id": "1:906083653930:android:cedce088166ed4f8",
        "android_client_info": {
          "package_name": "fr.digiplace.villetinqueux"
        }
      },
      "oauth_client": [
        {
          "client_id": "906083653930-h098von618054fqkviemqekg3i3vu438.apps.googleusercontent.com",
          "client_type": 3
        }
      ],
      "api_key": [
        {
          "current_key": "AIzaSyCVdP7nXh2cPSaS0lIFw5dYMX19PrxQImw"
        }
      ],
      "services": {
        "analytics_service": {
          "status": 1
        },
        "appinvite_service": {
          "status": 1,
          "other_platform_oauth_client": []
        },
        "ads_service": {
          "status": 2
        }
      }
    }
  ],
  "configuration_version": "1"
}